Museum Data Join
…
[1] 0.4204154

IQR(gardner$SpaceRatioPerPage)

[1] 0.2388467

gardner%>%
  arrange(desc(SpaceRatioPerPage))%>%
  select(ArtistName, EditionNumber, Year, SpaceRatioPerPage)%>%
  filter(SpaceRatioPerPage >= 2)

Adding missing grouping variables: `ArtistNationalityOther`, `ArtistGender`, `ArtistRace`, `ArtistEthnicity`

# A tibble: 24 × 8
# Groups:   ArtistName, EditionNumber, Year, ArtistNationalityOther,
#   ArtistGender, ArtistRace, ArtistEthnicity [24]
   ArtistNationalityOther ArtistGender ArtistRace ArtistEthnicity   ArtistName  
   <chr>                  <chr>        <chr>      <chr>             <chr>       
 1 French                 Male         White      Not Hispanic or … Eugène Dela…
 2 Spanish                Male         White      Hispanic or Lati… Pablo Picas…
 3 French                 Male         White      Not Hispanic or … Eugène Dela…
 4 French                 Male         White      Not Hispanic or … Jacques-Lou…
 5 Spanish                Male         White      Hispanic or Lati… Pablo Picas…
 6 French                 Male         White      Not Hispanic or … Eugène Dela…
 7 Spanish                Male         White      Hispanic or Lati… Pablo Picas…
 8 French                 Male         White      Not Hispanic or … Eugène Dela…
 9 Spanish                Male         White      Hispanic or Lati… Francisco G…
10 Spanish                Male         White      Hispanic or Lati… Pablo Picas…
# … with 14 more rows, and 3 more variables: EditionNumber <dbl>, Year <dbl>,
#   SpaceRatioPerPage <dbl>
…
